{
  "main": [
    {
      "name": "github",
      "icon": "fab fa-github",
      "link": "https://www.github.com/oasci"
    },
    {
      "name": "gitlab",
      "icon": "fab fa-gitlab",
      "link": "https://gitlab.com/oasci"
    }
  ]
}
