<?xml version="1.0" encoding="UTF-8" standalone="no"?>
<!-- Created with Inkscape (http://www.inkscape.org/) -->

<svg
   version="1.1"
   id="svg1"
   width="3966.6667"
   height="2266.6667"
   viewBox="0 0 3966.6667 2266.6667"
   sodipodi:docname="humility.svg"
   inkscape:version="1.3.2 (1:1.3.2+202311252150+091e20ef0f)"
   xmlns:inkscape="http://www.inkscape.org/namespaces/inkscape"
   xmlns:sodipodi="http://sodipodi.sourceforge.net/DTD/sodipodi-0.dtd"
   xmlns="http://www.w3.org/2000/svg"
   xmlns:svg="http://www.w3.org/2000/svg">
  <defs
     id="defs1" />
  <sodipodi:namedview
     id="namedview1"
     pagecolor="#ffffff"
     bordercolor="#000000"
     borderopacity="0.25"
     inkscape:showpageshadow="2"
     inkscape:pageopacity="0.0"
     inkscape:pagecheckerboard="0"
     inkscape:deskcolor="#d1d1d1"
     inkscape:zoom="0.18831932"
     inkscape:cx="1983.3334"
     inkscape:cy="1139.0228"
     inkscape:window-width="1920"
     inkscape:window-height="1043"
     inkscape:window-x="1920"
     inkscape:window-y="1080"
     inkscape:window-maximized="1"
     inkscape:current-layer="g1">
    <inkscape:page
       x="0"
       y="0"
       inkscape:label="1"
       id="page1"
       width="3966.6667"
       height="2266.6667"
       margin="0"
       bleed="0" />
  </sodipodi:namedview>
  <g
     id="g1"
     inkscape:groupmode="layer"
     inkscape:label="1">
    <path
       id="path3"
       d="m 436.75732,2043.28 c 0,0 -376.918255,-802.6533 365.94533,-802.6533 392.50265,0 230.81065,-220.224 497.66135,-475.0933 266.8493,-254.86666 1200.0893,-458.49332 1398.7159,33.66667 198.6267,492.15603 -292.2533,865.82663 182.08,801.71993 570.0133,-77.0266 795.1867,442.36 795.1867,442.36 H 436.75732"
       style="fill:#fbecdb;fill-opacity:1;fill-rule:nonzero;stroke:none;stroke-width:0.133333" />
    <path
       id="path4"
       d="m 3489.4399,1941.44 c -35.1733,-25.7066 -107.0533,-8.3466 -160.0933,10.2134 -7.9333,-11.1334 -17.5333,-22.6134 -29.16,-33.8267 114.2666,-73.6133 272.1066,-230.6 188.4533,-243.8933 -72.72,-11.5467 -170.8666,129.76 -223.3066,215.7733 -54.4667,-36.64 -137.92,-63.5733 -265.3334,-54.2267 -330.68,24.24 -589.0133,-189.0666 -779.44,-117.92 -151.4,56.56 -290.1599,88.2534 -423.9733,77.4267 5.76,-97.76 7.0134,-289.6933 -69.7466,-309.6 -77.9334,-20.2133 -1.4934,197.76 40.9866,306.6 -9.96,-1.28 -19.9066,-2.8 -29.8266,-4.5733 -27.52,-54.24 -72.8534,-125.2267 -122.6267,-127.6534 -46.88,-2.2933 10.9733,61.5334 67.9067,115.6 -163.64,-34.36 -357.7574,98.6667 -360.9774,255.9467 h 2043.004 c 0,0 -3.6134,-22.96 -19.64,-53.2267 78.96,-1.5466 181.9733,-8.72 143.7733,-36.64"
       style="fill:#a8d29f;fill-opacity:1;fill-rule:nonzero;stroke:none;stroke-width:0.133333" />
    <path
       id="path5"
       d="m 1229.492,1909.7467 v 121.5867 h 538.4546 V 1909.7467 H 1229.492"
       style="fill:#4a75cb;fill-opacity:1;fill-rule:nonzero;stroke:none;stroke-width:0.133333" />
    <path
       id="path6"
       d="m 1063.4653,1909.7467 v 121.5867 H 1601.92 v -121.5867 h -538.4547"
       style="fill:#699dee;fill-opacity:1;fill-rule:nonzero;stroke:none;stroke-width:0.133333" />
    <path
       id="path7"
       d="m 1979.7733,2031.3067 h 400.9466 v -560.4133 h -400.9466 v 560.4133"
       style="fill:#d86713;fill-opacity:1;fill-rule:nonzero;stroke:none;stroke-width:0.133333" />
    <path
       id="path8"
       d="m 1856.16,2031.3067 h 400.9333 V 1470.8934 H 1856.16 v 560.4133"
       style="fill:#f1a34f;fill-opacity:1;fill-rule:nonzero;stroke:none;stroke-width:0.133333" />
    <path
       id="path9"
       d="m 2257.0933,1470.8934 123.6266,84.1467 v -84.1467 z"
       style="fill:#c95c12;fill-opacity:1;fill-rule:nonzero;stroke:none;stroke-width:0.133333" />
    <path
       id="path10"
       d="m 1019.416,1595.0267 c 0,0 -74.98269,55.76 -89.60269,52.3733 -14.62,-3.3733 54.79867,-60.1866 54.79867,-60.1866 -26.12267,-12.56 -107.32534,-4.68 -107.32534,-4.68 0,0 -27.04666,87.2266 -40.38666,80.3466 -13.336,-6.88 27.89067,-76.0133 27.89067,-76.0133 -29.09467,-1.76 -64.77867,19.8533 -64.77867,19.8533 -48.85067,38.5734 3.21067,99.32 3.21067,99.32 0,0 -10.02667,30.0134 -40.876,57.36 0,0 -44.06,32.5867 -47.12,90.8134 l 7.996,0.7066 c 0,0 12.67866,-54.2266 35.71466,-79.8666 0.896,-0.9334 2.19867,-2.2667 3.80534,-3.88 3.75333,-3.48 6.38266,-6.0934 8.14933,-8.0267 11.46533,-11.0267 27.31067,-25.0533 34.944,-26.4133 0,0 -0.38267,-1.4 -0.32533,-3.84 0.104,1.2266 0.212,2.4933 0.32533,3.84 2.61467,30.6933 62.17066,57.5066 98.80666,63.0133 36.64,5.52 25.31334,-9.5467 12.68934,-31.8667 -12.624,-22.3333 -52.57467,-32.3333 -61.68933,-42.6133 -9.11467,-10.28 9.72933,-10.3067 31.80666,-0.2267 22.07333,10.08 25.096,36.9734 60.50933,53.9334 35.41067,16.9466 88.69466,-41.8134 88.69466,-41.8134 -28.2213,-1.4266 -68.52266,-32.08 -67.06666,-41.4533 1.46,-9.3867 68.41336,16.1733 79.85866,17.4 11.4453,1.2267 37.488,-13.0133 41.5173,-59.1067 4.0294,-46.1066 -71.5466,-58.9733 -71.5466,-58.9733"
       style="fill:#82b378;fill-opacity:1;fill-rule:nonzero;stroke:none;stroke-width:0.133333" />
    <path
       id="path11"
       d="m 621.19465,1629.6534 c 0,0 82.81867,-46.3867 44.16933,-109.32 0,0 -30.91733,-38.6533 -64.044,-48.5867 0,0 17.66667,93.8534 0,96.0667 -17.66933,2.2133 -12.14666,-106.0133 -12.14666,-106.0133 0,0 -87.23467,-41.96 -121.46667,-38.64 0,0 54.108,91.6533 36.44,89.44 -17.668,-2.2134 -78.39866,-94.96 -78.39866,-94.96 0,0 -89.444,-16.5734 -103.79866,36.44 -14.35467,53 8.83333,79.5066 22.08399,82.8133 13.25067,3.32 98.276,2.2133 96.068,13.2533 -2.208,11.04 -59.628,28.7067 -91.65066,18.7734 0,0 35.336,87.2266 81.71333,82.8133 46.37733,-4.4134 60.73333,-33.12 89.44266,-35.3334 28.70934,-2.2133 49.69067,5.52 35.33467,13.2534 -14.35467,7.72 -62.94133,2.5333 -86.12933,22.24 -23.18933,19.72 -41.96,31.8666 1.10533,40.6933 43.064,8.84 120.36,3.32 135.81866,-29.8133 15.45867,-33.12 15.45867,-33.12 15.45867,-33.12"
       style="fill:#a8d29f;fill-opacity:1;fill-rule:nonzero;stroke:none;stroke-width:0.133333" />
    <path
       id="path12"
       d="m 643.27998,1710.2534 c -23.18933,-43.0667 -22.08533,-80.6 -22.08533,-80.6 -26.5,-83.9333 -258.38933,-159.0133 -258.38933,-159.0133 294.82933,119.2533 242.93066,192.1333 242.93066,192.1333 7.94534,4.64 19.85867,26.7333 28.12667,43.6933 1.176,2.88 3.04267,6.88 5.812,12.3067 v 0 c 1.12267,2.44 2.02,4.4533 2.64,5.8533 15.18,37.9733 7.13867,103.5733 7.13867,103.5733 l 9.2,2.4667 c 20.388,-66.1067 -15.37334,-120.4133 -15.37334,-120.4133"
       style="fill:#82b378;fill-opacity:1;fill-rule:nonzero;stroke:none;stroke-width:0.133333" />
    <path
       id="path13"
       d="m 752.95198,1565.6934 c 0,0 -109.16933,-61.1333 -58.224,-144.1067 0,0 40.756,-50.9466 84.42267,-64.04 0,0 -23.28934,123.72 0,126.6267 23.29066,2.92 16.012,-139.7333 16.012,-139.7333 0,0 114.99066,-55.312 160.11466,-50.9454 0,0 -71.324,120.812 -48.03467,117.9054 23.28934,-2.92 103.34536,-125.1827 103.34536,-125.1827 0,0 117.9026,-21.8347 136.8266,48.036 18.9214,69.8667 -11.6466,104.8 -29.112,109.16 -17.4666,4.3733 -129.54796,2.92 -126.63596,17.48 2.912,14.5467 78.59996,37.84 120.81196,24.7333 0,0 -46.5773,115 -107.712,109.1734 -61.13329,-5.8267 -80.05729,-43.6667 -117.90262,-46.5734 -37.844,-2.92 -65.50133,7.2667 -46.57733,17.4667 18.92133,10.1867 82.96799,3.3333 113.53466,29.32 30.56667,25.9866 55.31329,42 -1.45733,53.64 -56.76534,11.6533 -158.65733,4.3733 -179.03467,-39.2934 -20.37733,-43.6666 -20.37733,-43.6666 -20.37733,-43.6666"
       style="fill:#a8d29f;fill-opacity:1;fill-rule:nonzero;stroke:none;stroke-width:0.133333" />
    <path
       id="path14"
       d="m 1093.5573,1356.0801 c 0,0 -305.67199,98.9866 -340.60532,209.6133 0,0 1.456,49.48 -29.11333,106.2533 0,0 -47.14,71.5867 -20.264,158.72 l 12.12667,-3.2533 c 0,0 -10.6,-86.4667 9.41066,-136.5334 0.816,-1.84 2,-4.4933 3.47867,-7.72 v 0 c 3.65333,-7.1466 6.11066,-12.4133 7.66266,-16.2133 10.89867,-22.3467 26.604,-51.48 37.076,-57.5867 0,0 -68.41199,-96.0666 320.22799,-253.2799"
       style="fill:#82b378;fill-opacity:1;fill-rule:nonzero;stroke:none;stroke-width:0.133333" />
    <path
       id="path15"
       d="m 749.27331,2019.6267 c 118.10267,0 213.84267,-95.7333 213.84267,-213.84 H 535.42932 c 0,118.1067 95.74133,213.84 213.84399,213.84"
       style="fill:#f1a34f;fill-opacity:1;fill-rule:nonzero;stroke:none;stroke-width:0.133333" />
    <path
       id="path16"
       d="m 801.89331,2018 c -8.69733,1.08 -17.56533,1.6267 -26.56933,1.6267 -118.09866,0 -213.83333,-95.7467 -213.83333,-213.84 h 53.12533 c 0,109.1067 81.71067,199.12 187.27733,212.2133"
       style="fill:#ffb973;fill-opacity:1;fill-rule:nonzero;stroke:none;stroke-width:0.133333" />
    <path
       id="path17"
       d="M 939.68798,2004.92 H 558.85865 c -14.57066,0 -26.384,11.8134 -26.384,26.3867 h 433.59466 c 0,-14.5733 -11.812,-26.3867 -26.38133,-26.3867"
       style="fill:#f1a34f;fill-opacity:1;fill-rule:nonzero;stroke:none;stroke-width:0.133333" />
    <path
       id="path18"
       d="M 964.69998,1805.7867 H 531.67732 c -1.812,0 -3.28,1.4667 -3.28,3.28 0,1.8133 1.468,3.28 3.28,3.28 h 433.02266 c 1.812,0 3.27866,-1.4667 3.27866,-3.28 0,-1.8133 -1.46666,-3.28 -3.27866,-3.28"
       style="fill:#d86713;fill-opacity:1;fill-rule:nonzero;stroke:none;stroke-width:0.133333" />
    <path
       id="path19"
       d="m 2614.8399,679.70674 c -6.2,-0.94667 -24.88,16.32 -24.88,16.32 v 0 c -39.88,4.61333 -98.1866,15.2 -119.1733,19.24 -14.8933,2.86667 -54.9067,-10.77333 -94,-26.44 -46.4933,-18.64 -91.6667,-40.13333 -91.6667,-40.13333 -25.8,-1.32 -55.0933,45.74666 -2.7733,75.66666 7.9867,4.57334 37.9867,12.37333 72.5467,19.49333 0,0 0,0 0,-0.0133 47.6666,9.82667 103.9866,18.34667 123.1466,15.36 22.2667,-3.49333 85.2934,-26.54666 122.7867,-44.2 v 0 c 0,0 0.04,-0.0133 0.093,-0.04 0.1467,-0.0667 0.28,-0.13333 0.4134,-0.2 2.2533,-1.05333 11.4266,-5.14666 17.56,-4.77333 7.0266,0.41333 22.6666,-12.44 23.1466,-15.88 0.4667,-3.42667 -21,-13.46667 -27.2,-14.4"
       style="fill:#ed975d;fill-opacity:1;fill-rule:nonzero;stroke:none;stroke-width:0.133333" />
    <path
       id="path20"
       d="m 2566.1466,1272.6201 -21.96,4.4626 c 0,0 -100.4933,-112.9106 -116,-160.4226 -8.2933,-25.3907 -61.3467,-36.3627 -116.8,-50.696 -48.2533,-12.4774 -98.32,-27.5094 -122.2267,-56.84 -51.4,-63.0187 32.2667,-140.45737 32.2667,-140.45737 0,0 88.9733,52.88 165.72,107.50267 53.64,38.1747 101.32,77.2 108.5067,99.6307 17.4533,54.5426 54.4533,158.2213 70.4933,196.82"
       style="fill:#2b478b;fill-opacity:1;fill-rule:nonzero;stroke:none;stroke-width:0.133333" />
    <path
       id="path21"
       d="m 2536.7466,1309.8667 h 12.36 c 4.1333,-0.6493 7.1867,-1.8466 11.4267,-2.4013 6.4533,-0.8453 9.4133,1.796 10,2.4013 0.08,0.081 0.12,0.1254 0.12,0.1254 h 52.4666 c 1.32,-1.884 0.053,-6.2507 -1.1866,-9.464 -0.8267,-2.184 -2.6534,-3.8387 -4.9067,-4.4907 -5.56,-1.612 -16.5333,-3.0467 -26.5867,-12.1413 -5.64,-5.1067 -27.28,-18.7787 -27.28,-18.7787 l -0.12,-0.027 c -0.48,0.01 -2.7333,0.704 -12.5866,9.016 -5.08,4.288 -13.76,-6.0573 -13.76,-6.0573 0,0 -1.6267,1.3467 -2.84,3.8573 -0.9734,1.98 -1.6934,4.7 -1.1334,8.0547 0.7867,4.728 -1.7333,13.5133 -3.76,19.456 -1.2133,3.6027 -2.24,6.156 -2.24,6.156 0,0 -0.6,2.9653 10.0267,4.2933"
       style="fill:#233862;fill-opacity:1;fill-rule:nonzero;stroke:none;stroke-width:0.133333" />
    <path
       id="path22"
       d="m 2387.1466,976.1694 -75.76,89.7947 c -48.2533,-12.4774 -98.32,-27.5094 -122.2267,-56.84 -51.4,-63.0187 32.2667,-140.45737 32.2667,-140.45737 0,0 88.9733,52.88 165.72,107.50267"
       style="fill:#1e3d70;fill-opacity:1;fill-rule:nonzero;stroke:none;stroke-width:0.133333" />
    <path
       id="path23"
       d="m 2318.3066,929.26673 c 0,0 -6.1067,19.25867 -16.0533,48.23334 -12.5734,36.63603 -31.2934,88.80003 -51.6,137.17603 -4.4667,10.6293 -9.0134,21.0813 -13.5867,31.1413 -16.8933,37.2267 -34.1733,69.1387 -49.4,85.3547 -27.36,29.1533 -93.8533,216.5746 -93.8533,216.5746 l -16.5734,-4.5866 c 0,0 -23.1066,-160.0374 58.7334,-251.108 0.88,-0.9707 1.56,-2.0947 1.6533,-3.3987 0.013,-0.011 0.013,-0.023 0.013,-0.035 1.0934,-13.4813 4.9867,-73.848 13.4667,-135.02 2.08,-15.0093 4.44,-30.0533 7.08,-44.4706 0.1733,-0.924 0.3467,-1.8347 0.52,-2.7454 12.44,-66.66397 24.36,-96.31597 39.7467,-111.23597 l 113.16,32.21334 6.6933,1.90666"
       style="fill:#2b478b;fill-opacity:1;fill-rule:nonzero;stroke:none;stroke-width:0.133333" />
    <path
       id="path24"
       d="m 2075.3866,1470.7734 h 12.36 c 4.1333,-0.6533 7.1867,-1.8533 11.4267,-2.4133 6.4533,-0.84 9.4133,1.8 10,2.4133 0.08,0.08 0.12,0.12 0.12,0.12 h 52.4666 c 1.32,-1.8933 0.053,-6.2533 -1.1866,-9.4667 -0.84,-2.1866 -2.6534,-3.84 -4.9067,-4.4933 -5.5733,-1.6133 -16.5333,-3.04 -26.5867,-12.1333 -5.6533,-5.1067 -27.2933,-18.7867 -27.2933,-18.7867 l -0.1067,-0.027 c -0.48,0.013 -2.7333,0.7067 -12.5866,9.0134 -5.08,4.2933 -13.76,-6.0534 -13.76,-6.0534 0,0 -1.6267,1.3467 -2.84,3.8534 -0.9734,1.9866 -1.6934,4.7066 -1.1334,8.0666 0.7867,4.72 -1.7333,13.5067 -3.7466,19.4534 -1.2267,3.6 -2.2667,6.1466 -2.2667,6.1466 0,0 -0.5867,2.9734 10.04,4.3067"
       style="fill:#233862;fill-opacity:1;fill-rule:nonzero;stroke:none;stroke-width:0.133333" />
    <path
       id="path25"
       d="m 2099.6533,711.61341 c 0,0 -18.9334,46.30666 -40.76,91.38666 -18.36,37.90667 -38.76,74.93333 -51.6934,82.84 -18.2399,11.13333 -68.4799,42.56 -101.0799,66.00933 0,0 -25.4267,-0.19333 -29.3867,4.676 -3.9467,4.86933 -13.0667,26.748 -10.4,28.96133 2.6667,2.21467 22.88,1.188 27.7867,-3.848 4.2933,-4.39066 13.8266,-7.54933 16.2,-8.284 0.1466,-0.0467 0.2933,-0.0893 0.44,-0.136 0.067,-0.0173 0.1066,-0.028 0.1066,-0.028 v -10e-4 c 39.6,-12.184 101.7333,-37.56933 120.5333,-49.98933 16.2,-10.68 52.0934,-54.90667 80.72,-94.25333 0.013,0 0.013,0 0.013,0 20.76,-28.53334 37.6933,-54.49334 40.52,-63.25334 18.5466,-57.34666 -34.8134,-72.42666 -53,-54.07999"
       style="fill:#ffb27d;fill-opacity:1;fill-rule:nonzero;stroke:none;stroke-width:0.133333" />
    <path
       id="path26"
       d="m 2198.6666,529.98674 c -2.24,-3.26666 -4.52,-6.16 -6.7733,-8.76 2.8,0.0667 5.8266,-0.21333 8.3466,-1.25333 6.6534,-2.74667 9.68,-23.84 8.68,-30.10667 -1,-6.25333 -10.2266,-24.34666 -21.6133,-26.14666 -11.3867,-1.81333 -23.1467,10.82666 -23.1467,10.82666 2.1067,-9.11999 21.36,-14.38666 21.36,-14.38666 -39.6666,7.32 -37.64,33.77333 -37.3733,36.22666 -36.3067,-12.94666 -57.6267,55.44 -57.6267,55.44 l 94.0667,55.44 c 0,0 0.24,-15.10666 9.2133,-14.13333 14,1.52 25.6534,-32.85333 4.8667,-63.14667"
       style="fill:#2c3a64;fill-opacity:1;fill-rule:nonzero;stroke:none;stroke-width:0.133333" />
    <path
       id="path27"
       d="m 2204.6666,673.48007 c -21.5867,10.17334 -50.2267,-4.48 -50.08,-4.64 1.8533,-1.84 1.2,-7.38666 -0.4933,-14.62666 -1.6934,-7.56 -5.7067,-17.89334 -13.1067,-30.22667 -1.5333,-2.61333 -3.08,-5.24 -4.9333,-8.01333 l 2.4666,-0.92 41.9334,-16.8 c 0,0 6.7866,12.17333 13.88,23.26666 6.0133,9.25334 12.3333,17.57334 15.1066,17.26667 0.16,-0.14667 27.9067,18.97333 -4.7733,34.69333"
       style="fill:#ffb27d;fill-opacity:1;fill-rule:nonzero;stroke:none;stroke-width:0.133333" />
    <path
       id="path28"
       d="m 2180.4533,602.41341 c -1.08,14.94666 -6.16,41.93333 -26.36,51.8 -1.6934,-7.56 -5.7067,-17.89334 -13.1067,-30.22667 l 39.4667,-21.57333"
       style="fill:#ed975d;fill-opacity:1;fill-rule:nonzero;stroke:none;stroke-width:0.133333" />
    <path
       id="path29"
       d="m 2138.5333,641.01341 c 0,0 54.6,-21.52 40.6666,-55.30667 -13.92,-33.8 -16.2533,-59.33333 -51.6933,-47.01333 -35.44,12.30667 -36.8667,27.97333 -34.96,40.38667 1.9067,12.4 31.4267,66.65333 45.9867,61.93333"
       style="fill:#ffb27d;fill-opacity:1;fill-rule:nonzero;stroke:none;stroke-width:0.133333" />
    <path
       id="path30"
       d="m 2158.8933,578.00008 c 25.2133,-3.56 32.5733,-13.74667 32.5733,-13.74667 0,0 -23.2133,-6.66667 -36.8533,-29.4 0,0 -28.3334,-9.56 -49.3334,6.41333 -1.28,1.66667 -2.2,3.62667 -2.6533,5.92 -4.8133,-1.57333 -12.0533,-1.16 -16.2267,12.44 -6.2666,20.42667 16.04,42.73333 16.04,42.73333 5.4134,-1.52 -0.6933,-19.73333 -1.5466,-29.45333 -0.6267,-7.14666 3.24,-16.30666 5.32,-20.64 2.6666,3.46667 29.2666,36.88 61.7333,38.21334 0,0 -17.16,-5.94667 -32.7733,-17.58667 7.7733,3.81333 16.0266,6.18667 23.72,5.10667"
       style="fill:#2c3a64;fill-opacity:1;fill-rule:nonzero;stroke:none;stroke-width:0.133333" />
    <path
       id="path31"
       d="m 2308.5999,743.0934 c -0.4666,-1.62666 -0.96,-3.32 -1.48,-5.05333 8.1067,-15.49333 12.0934,-29.45333 13.7734,-41.28 3.7066,-24.97333 -2.6134,-40.4 -2.6134,-40.4 0,0 -37.8666,-20.08 -54.5866,-22.62666 -0.08,-0.0267 -0.1467,-0.0533 -0.2134,-0.0667 -0.2,-0.0267 -0.4266,-0.0533 -0.6666,-0.0667 -16.88,-2.32 -53.4267,5.13334 -53.4267,5.13334 0,0 7.0533,18.77333 -12.8267,31.28 -19.8933,12.50666 -41.1333,-3.21334 -41.1333,-3.21334 -0.64,0.44 -1.32,0.90667 -2.0133,1.41334 l -0.013,-0.0133 c 0,0 -52.32,34.53334 -57.0133,42.41334 -4.7067,7.89333 -24.8267,46.95999 -24.8267,46.95999 0,0 6.3867,32.78667 77.0667,35.53334 5.8133,14.09333 10.2667,27.84 11.7067,39.30666 5.6133,44.52 -0.9067,79.62667 5.64,105.61467 6.5466,25.98533 124.48,11.16666 145.84,6.168 21.36,-5 16.5466,-27.80934 18.2,-49.956 2.0666,-27.84 -14.4534,-126.58667 -21.4134,-151.14667"
       style="fill:#699dee;fill-opacity:1;fill-rule:nonzero;stroke:none;stroke-width:0.133333" />
    <path
       id="path32"
       d="m 2320.8933,696.76007 c -1.6934,11.86667 -5.6934,25.89334 -13.8667,41.46667 -1.8533,-8.17333 -9.4,-38.08 -21.5867,-51.64 0,0 20.5067,1.84 35.4534,10.17333"
       style="fill:#4a82d3;fill-opacity:1;fill-rule:nonzero;stroke:none;stroke-width:0.133333" />
    <path
       id="path33"
       d="m 1840.6933,988.5054 c 0,0 21.9733,-26.62667 26.7067,-29.77333 4.7333,-3.148 25.48,-8.66534 26.6666,-7.55467 1.1867,1.112 1.24,2.72 -1.3333,4.99067 -2.56,2.27066 -12.3867,7.99866 -10.9867,8.644 1.4134,0.64666 31.0134,-14.096 35.2934,-9.13734 4.2666,4.95734 -2.4267,25.424 -13.84,35.236 -11.4,9.81067 -45.4667,13.99597 -47.6,15.36537 -18.1734,11.616 -14.9067,-17.7707 -14.9067,-17.7707"
       style="fill:#ed975d;fill-opacity:1;fill-rule:nonzero;stroke:none;stroke-width:0.133333" />
    <path
       id="path34"
       d="m 1453.8533,927.02673 c 0,0 31.5733,37.44534 71.76,21.77867 0,0 8.6533,-20.912 8.7733,-36.33867 0.013,-1.89333 0.04,-3.73333 0.067,-5.48 0.2133,-17.36 0.8,-27.10666 0.8,-27.10666 0,0 -0.013,0 -0.04,0 -1.8267,-0.76 -61.4533,-25.24 -61.4,-23.21333 1.0267,46.95999 -19.96,70.35999 -19.96,70.35999"
       style="fill:#ffb27d;fill-opacity:1;fill-rule:nonzero;stroke:none;stroke-width:0.133333" />
    <path
       id="path35"
       d="m 1479.8,867.86673 c 5.7466,10.65334 25.48,31.50667 54.6533,39.12 0.2133,-17.36 0.8,-27.10666 0.8,-27.10666 0,0 -0.013,0 -0.04,0 -1.6533,-0.44 -57.12,-15.16 -55.4133,-12.01334"
       style="fill:#ed975d;fill-opacity:1;fill-rule:nonzero;stroke:none;stroke-width:0.133333" />
    <path
       id="path36"
       d="m 1547.7466,878.08007 c 0,0 -67.0533,15.76 -76.2266,-26.14667 -9.1734,-41.90666 -24.0134,-68.09333 18.4133,-79.92 42.4267,-11.84 54.2667,2.32 60.7333,15.56 6.4667,13.25334 14.28,85.33333 -2.92,90.50667"
       style="fill:#ffb27d;fill-opacity:1;fill-rule:nonzero;stroke:none;stroke-width:0.133333" />
    <path
       id="path37"
       d="m 1473.8133,863.36007 c -0.92,0.58667 -15.3467,5.01333 -42.6667,-49.41333 -4.2933,-8.54667 -7.2133,-27.02667 2.7867,-43.36 10,-16.33334 45.4533,-29.17334 74.9067,-34.76 29.4533,-5.58667 36.52,10.98666 43.4533,27.64 7.28,17.48 28.3067,31.88 28.3067,31.88 -25.3867,14.18666 -55.9867,-6.10667 -66.5867,-2.77334 -10.6,3.34667 -14.3333,20.04 -15.1333,25.4 -0.8,5.34667 -2.0134,9.8 -15.3467,5.01334 -13.32,-4.77334 -6.0267,18.89333 -3.8933,23.41333 0,0 1.8133,12.05333 -5.8267,16.96"
       style="fill:#a9453d;fill-opacity:1;fill-rule:nonzero;stroke:none;stroke-width:0.133333" />
    <path
       id="path38"
       d="m 1301.0906,1909.7467 h -40.6 c -8.5093,0 -17.9666,-8.64 -20.3346,-24.44 -2.368,-15.8267 -19.8614,-24.4533 -23.6494,-37.4 -3.788,-12.9333 15.6134,-31.16 15.6134,-31.16 l 3.2413,-4.2267 3.3747,-4.4 32.16,7.6667 c 0,0 0.7933,7.76 1.2893,17.6533 0.344,7.1334 0.532,15.3867 0.1307,22.6134 -0.9467,17.2666 4.7693,35.84 19.8973,39.2 15.14,3.36 8.8773,14.4933 8.8773,14.4933"
       style="fill:#2c3a64;fill-opacity:1;fill-rule:nonzero;stroke:none;stroke-width:0.133333" />
    <path
       id="path39"
       d="m 1583.72,1910.1334 h -107.6134 c -1.0266,-0.2 -1.8133,-0.4267 -2.28,-0.68 -7.1866,-3.7067 -4.9333,-32.0267 -4.08,-40.7734 0.1734,-1.6266 0.2934,-2.5733 0.2934,-2.5733 0,0 37.84,-31.16 43.04,-7.2933 0.1733,0.7333 0.36,1.4666 0.56,2.1866 v 0.013 c 6.5733,22.32 35.9333,32.4666 52.9066,35.2933 12.96,2.1733 16.32,9.9467 17.1734,13.8267"
       style="fill:#2c3a64;fill-opacity:1;fill-rule:nonzero;stroke:none;stroke-width:0.133333" />
    <path
       id="path40"
       d="m 1562.04,1287.8041 c 0,0 -5.7467,71.7026 -12.5067,157.8893 -9.1867,117.0933 -20.2267,260.92 -21.3067,288.16 -1.8933,47.3066 -9.4666,122.9866 -9.4666,122.9866 0,0 -17.9734,17.9867 -53.9334,10.4 0,0 -32.04,-108.0266 -41.1866,-222.3333 -0.1467,-1.88 -0.2934,-3.76 -0.4267,-5.6533 -8.52,-116.36 -21.76,-361.3853 -21.76,-361.3853 l 160.5867,9.936"
       style="fill:#ee9849;fill-opacity:1;fill-rule:nonzero;stroke:none;stroke-width:0.133333" />
    <path
       id="path41"
       d="m 1562.04,1287.8041 c 0,0 -5.7467,71.7026 -12.5067,157.8893 L 1423.64,1644.9067 c -0.1467,-1.88 -0.2934,-3.76 -0.4267,-5.6533 -8.52,-116.36 -21.76,-361.3853 -21.76,-361.3853 l 160.5867,9.936"
       style="fill:#e58638;fill-opacity:1;fill-rule:nonzero;stroke:none;stroke-width:0.133333" />
    <path
       id="path42"
       d="m 1535.7866,1296.3174 c 0,0 -103.5866,259.6827 -171.7066,381.7226 -68.108,122.04 -89.3934,156.0934 -89.3934,156.0934 0,0 -39.0253,-15.6 -42.5733,-26.2534 0,0 26.048,-235.5999 71.6627,-293.0266 25.7746,-32.4533 56.0506,-129.84 57.4773,-163.9067 1.4133,-34.0533 9.2133,-101.4573 9.2133,-101.4573 l 165.32,46.828"
       style="fill:#ee9849;fill-opacity:1;fill-rule:nonzero;stroke:none;stroke-width:0.133333" />
    <path
       id="path43"
       d="m 1298.6106,1253.0707 c 0,0 -2.6826,32.4307 -4.648,37.4107 -1.9666,4.98 -15.0613,20.4173 -16.5786,20.196 -1.5174,-0.2213 -2.4227,-1.4373 -1.656,-4.58 0.768,-3.14 5.284,-12.852 3.8546,-12.6013 -1.4333,0.2546 -16.4213,27.5946 -22.3906,26.056 -5.972,-1.54 -11.8094,-20.9814 -8.2574,-34.7134 3.5534,-13.732 27.664,-35.296 28.5854,-37.508 7.808,-18.7626 21.0906,5.74 21.0906,5.74"
       style="fill:#ed975d;fill-opacity:1;fill-rule:nonzero;stroke:none;stroke-width:0.133333" />
    <path
       id="path44"
       d="m 1287.4946,1261.2961 c 11.4667,3.68 13.304,2.848 13.304,2.848 0,0 55.8014,-101.604 61.4547,-110.904 5.6533,-9.3014 118.4933,-113.9374 118.4933,-113.9374 l -29,-108.1293 c 0,0 -128.3346,166.188 -142.1946,190.036 -22.9014,39.4067 -36.32,130.9293 -36.32,130.9293 0,0 5.256,6.2654 14.2626,9.1574"
       style="fill:#1e3d70;fill-opacity:1;fill-rule:nonzero;stroke:none;stroke-width:0.133333" />
    <path
       id="path45"
       d="m 1583.9066,1081.7547 c -0.4,22.208 -1.6933,47.1694 -3.44,72.524 -0.1066,1.504 -0.2133,3.008 -0.32,4.5107 -1.1066,15.7067 -2.32,31.4507 -3.7066,46.8013 -0.5467,6.1574 -1.1467,12.24 -1.76,18.216 l -0.093,0.8067 c -0.04,2.2373 -0.32,4.6627 -0.56,6.8773 -5.6666,57.5014 -11.6,102.936 -12.6933,103.6294 -1.32,0.88 -2.8,1.32 -4.4133,1.12 -15.08,-1.8934 -60.08,1.5333 -96.9067,-6.4827 -31.08,-6.5573 -57.8533,-18.9853 -86.2133,-35.7467 -3.76,-2.224 -12.3467,-8.1186 -11.64,-12.5226 0.68,-4.8414 1.9466,-11.8374 3.56,-20.6307 5.5866,-30.5867 15.2266,-83.2 18.52,-144.7733 0.64,-11.472 1.5733,-22.7974 2.7866,-33.9374 3.16,-29.0106 8.2267,-56.5666 15.0267,-81.0466 12.6267,-45.4747 31.1867,-80.30003 54.4667,-93.9267 3.04,-1.69333 19.4133,8.72 34.44,18.36 13.8933,8.904 28.5066,11.36667 42.72,10.12267 l 12.5066,13.83733 c 15.16,17.61333 31.2934,41.06267 35.6934,74.3933 0.3333,2.4627 0.6133,5.0787 0.8533,7.86 1.2133,13.576 1.52,30.764 1.1733,50.008"
       style="fill:#2a4e96;fill-opacity:1;fill-rule:nonzero;stroke:none;stroke-width:0.133333" />
    <path
       id="path46"
       d="m 1583.9066,1081.7547 c -0.4,22.208 -1.6933,47.1694 -3.44,72.524 -0.1066,1.504 -0.2133,3.008 -0.32,4.5107 -86.1333,-53.916 -99.4,-152.576 -99.4,-152.576 42.3734,1.86 76.04,11.6013 101.9867,25.5333 1.2133,13.576 1.52,30.764 1.1733,50.008"
       style="fill:#1e3d70;fill-opacity:1;fill-rule:nonzero;stroke:none;stroke-width:0.133333" />
    <path
       id="path47"
       d="m 1853.7733,991.1694 c -4.44,-12.012 -11.3467,-11.23067 -11.3467,-11.23067 0,0 -128.08,31.91597 -139.5733,33.28537 -11.48,1.3706 -137.9067,-49.3627 -137.9067,-49.3627 0,0 -49.76,-22.332 -73.0666,-1.94133 -20.2534,17.72 -21.1734,40.16533 -16.44,59.01603 5.6533,22.464 24.6533,39.0586 47.64,41.9853 51.5733,6.5693 154.48,18.9347 176.04,15.9333 48,-6.684 156.7733,-69.4706 156.7733,-69.4706 0,0 1.36,-8.78 -2.12,-18.2147"
       style="fill:#2a4e96;fill-opacity:1;fill-rule:nonzero;stroke:none;stroke-width:0.133333" />
    <path
       id="path48"
       d="m 3116.6133,1225.9094 c 0,0 17.7866,16.4907 14.32,28.208 -3.48,11.7173 -19.5334,19.528 -21.7067,33.8507 -2.16,14.3213 -10.84,22.132 -18.6533,22.132 -7.8134,0 -37.24,0 -37.24,0 0,0 -5.76,-10.0774 8.1333,-13.116 13.8933,-3.0374 19.12,-19.8654 18.2533,-35.4894 -0.8666,-15.6226 1.3067,-36.4533 1.3067,-36.4533 l 29.5067,-6.944 6.08,7.812"
       style="fill:#2c3a64;fill-opacity:1;fill-rule:nonzero;stroke:none;stroke-width:0.133333" />
    <path
       id="path49"
       d="m 2894.8533,1308.1494 c -1.8,0.9067 -8.1467,1.5307 -16.8534,1.9493 h -84.2266 c 0.2933,-2.5053 2.2533,-11.4346 16.0266,-13.656 15.56,-2.528 42.5067,-11.572 48.5067,-31.472 0.2133,-0.6346 0.3733,-1.2933 0.5333,-1.9493 4.76,-21.2627 39.48,6.5053 39.48,6.5053 0,0 0.1067,0.8494 0.2534,2.3 0.8133,7.8187 2.8666,33.036 -3.72,36.3227"
       style="fill:#2c3a64;fill-opacity:1;fill-rule:nonzero;stroke:none;stroke-width:0.133333" />
    <path
       id="path50"
       d="m 2813.9199,739.38674 c 0,0 5.2667,65.78666 11.4667,144.86666 8.4267,107.41867 18.56,239.3693 19.56,264.3653 1.7333,43.4067 8.68,112.8374 8.68,112.8374 0,0 16.48,16.496 49.48,9.5426 0,0 29.3867,-99.1146 37.7867,-203.984 0.1333,-1.7186 0.2666,-3.4493 0.3866,-5.1813 7.8134,-106.75867 19.96,-331.55333 19.96,-331.55333 l -147.32,9.10667"
       style="fill:#35488b;fill-opacity:1;fill-rule:nonzero;stroke:none;stroke-width:0.133333" />
    <path
       id="path51"
       d="m 2813.9199,739.38674 c 0,0 5.2667,65.78666 11.4667,144.86666 l 115.5067,182.7613 c 0.1333,-1.7186 0.2666,-3.4493 0.3866,-5.1813 7.8134,-106.75867 19.96,-331.55333 19.96,-331.55333 l -147.32,9.10667"
       style="fill:#2c3a64;fill-opacity:1;fill-rule:nonzero;stroke:none;stroke-width:0.133333" />
    <path
       id="path52"
       d="m 2837.9999,747.20007 c 0,0 95.04,238.25066 157.5334,350.21463 62.4933,111.9654 82.0133,143.212 82.0133,143.212 0,0 35.8133,-14.3213 39.0667,-24.0866 0,0 -23.8934,-216.1547 -65.7467,-268.84537 -23.6533,-29.77466 -51.4267,-119.12133 -52.7333,-150.37466 -1.2934,-31.24 -8.4667,-93.08 -8.4667,-93.08 l -151.6667,42.96"
       style="fill:#35488b;fill-opacity:1;fill-rule:nonzero;stroke:none;stroke-width:0.133333" />
    <path
       id="path53"
       d="m 2544.8533,617.97341 c 0,0 -25.7734,-5.89334 -30.12,-5.58667 -4.3334,0.29333 -19.5067,6.64 -19.7067,7.86667 -0.2133,1.22666 0.5067,2.24 3.1333,2.41333 2.6267,0.17333 11.2534,-0.93333 10.7067,0.10667 -0.5467,1.05333 -25.4133,5.93333 -25.68,10.94666 -0.28,5 13.3467,14.30667 24.8533,14.92 11.5067,0.62667 34.1334,-12.74666 36.08,-12.92 16.4534,-1.42666 0.7334,-17.74666 0.7334,-17.74666"
       style="fill:#ffb27d;fill-opacity:1;fill-rule:nonzero;stroke:none;stroke-width:0.133333" />
    <path
       id="path54"
       d="m 2533.8266,624.52007 c -3.7067,-11.77333 -2.84,-13.64 -2.84,-13.64 0,0 104.5067,-56.50666 114.0667,-62.23999 9.5733,-5.73334 117.56,-120.65333 117.56,-120.65333 l 110.6133,30.44 c 0,0 -171.1733,130.39999 -195.7067,144.43999 -40.5333,23.2 -134.4133,36.33333 -134.4133,36.33333 0,0 -6.3867,-5.42666 -9.28,-14.68"
       style="fill:#e58638;fill-opacity:1;fill-rule:nonzero;stroke:none;stroke-width:0.133333" />
    <path
       id="path55"
       d="m 2796.1333,372.12008 c 0,0 -38.7734,68.22667 -76.68,77.13333 0,0 1.5733,-22.90666 10.8,-38.6 -3.7734,-4.45333 -7.0934,-8.54666 -9.9734,-12.21333 -9.5333,-12.22667 -14.0666,-19.70667 -14.0666,-19.70667 l 12.8533,-34.58666 8.7333,-23.46667 c 4.2,7.61334 8.8134,14.10667 13.64,19.65333 24.84,28.56 54.6934,31.78667 54.6934,31.78667"
       style="fill:#ffb27d;fill-opacity:1;fill-rule:nonzero;stroke:none;stroke-width:0.133333" />
    <path
       id="path56"
       d="m 2741.4399,340.33341 c 0,0 4.6267,34.2 -21.16,58.10667 -9.5333,-12.22667 -14.0666,-19.70667 -14.0666,-19.70667 l 12.8533,-34.58666 c 13.8,-4.2 22.3733,-3.81334 22.3733,-3.81334"
       style="fill:#ed975d;fill-opacity:1;fill-rule:nonzero;stroke:none;stroke-width:0.133333" />
    <path
       id="path57"
       d="m 2695.9866,383.77341 c 0,0 57.9467,-22.58666 43.32,-58.45333 -14.6267,-35.86666 -16.9867,-62.93333 -54.6,-50.02666 -37.6133,12.90666 -39.1733,29.50666 -37.2,42.65333 1.96,13.16 33.04,70.77333 48.48,65.82666"
       style="fill:#ffb27d;fill-opacity:1;fill-rule:nonzero;stroke:none;stroke-width:0.133333" />
    <path
       id="path58"
       d="m 2995.2933,722.24007 c -23.3734,33.6 -198.12,78.50667 -196.0534,55.24 0.8,-8.89333 1.8667,-24.58667 -0.027,-45.86666 -0.44,-4.98667 -1.0534,-10.26667 -1.8534,-15.85334 -4.44,-30.56 -14.9866,-69.86666 -38.5066,-115.34666 -1.76,-3.41333 -3.6,-6.85333 -5.5067,-10.33333 -9.68,-17.6 -17.9333,-36.22667 -24.2267,-54.42667 -12.1066,-34.98667 -16.9866,-68.46667 -10.88,-90.34666 0.027,-0.10667 0.067,-0.21334 0.093,-0.32 36.5333,-16.88 50.6933,-82.38667 50.6933,-82.38667 0,0 124.6133,22.37333 194.4267,188.48 0,0 52.1733,141.91999 31.84,171.15999"
       style="fill:#ee9849;fill-opacity:1;fill-rule:nonzero;stroke:none;stroke-width:0.133333" />
    <path
       id="path59"
       d="m 2799.2133,731.61341 c -0.44,-4.98667 -1.0534,-10.26667 -1.8534,-15.85334 -4.44,-30.56 -14.9866,-69.86666 -38.5066,-115.34666 4.04,-24.48 9.6133,-44.84 15.7333,-54 24.8533,-37.25333 39.3333,-43.08 39.3333,-43.08 0,0 37.2667,157.2 -14.7066,228.28"
       style="fill:#e58638;fill-opacity:1;fill-rule:nonzero;stroke:none;stroke-width:0.133333" />
    <path
       id="path60"
       d="m 2602.7733,694.21341 c 0,0 -34.48,1.8 -39.8267,3.73333 -5.3333,1.92 -22.12,15.32 -21.9333,16.93333 0.1866,1.61334 1.44,2.61334 4.8,1.89334 3.3466,-0.70667 13.8,-5.18667 13.48,-3.68 -0.3067,1.50666 -29.7867,16.53333 -28.3467,22.91999 1.4533,6.37334 21.88,13.18667 36.56,9.85334 14.6667,-3.33334 38.3067,-28.2 40.68,-29.10667 20.1467,-7.68 -5.4133,-22.54666 -5.4133,-22.54666"
       style="fill:#ffb27d;fill-opacity:1;fill-rule:nonzero;stroke:none;stroke-width:0.133333" />
    <path
       id="path61"
       d="m 2596.2666,707.28007 c -6.9067,-11.16 -1.92,-16.25333 -1.92,-16.25333 0,0 106.4933,-83.37333 114.84,-91.8 8.3467,-8.42666 47.0133,-142.55999 47.0133,-142.55999 0,0 13.3067,-54.28 44.48,-60.26667 27.08,-5.2 45.8,8.2 58.0534,23.90667 14.5866,18.72 16.0266,44.53333 3.9066,64.94666 -27.1866,45.82667 -82.04,136.77333 -98.0533,152.30666 -35.6533,34.58667 -154.9333,82.92 -154.9333,82.92 0,0 -7.96,-4.44 -13.3867,-13.2"
       style="fill:#ee9849;fill-opacity:1;fill-rule:nonzero;stroke:none;stroke-width:0.133333" />
    <path
       id="path62"
       d="m 2747.6266,258.69342 c 0.4,-0.8 1.5867,-1.65334 4.4533,-2.53334 0,0 -2.6933,-0.90666 -5.8266,-0.21333 -1.6267,-3.97333 -5.5867,-10.73333 -13,-10.78667 0,0 4.2533,1.10667 5.8266,5.37334 -10.16,-6.45334 -29,-8.32 -76.0266,7.34666 -61.9867,20.64 -31.0134,56.62667 -21.6267,59.50667 9.4,2.88 26.6933,-15.62667 42.24,-18.16 15.56,-2.52 23.9733,19.14667 29.8933,20.94667 5.9334,1.78666 2.56,-3.13334 8.7734,-8.08 6.2133,-4.93334 9.7733,6.68 9.64,14.84 -0.1334,8.15999 11.9733,15.89333 11.9733,15.89333 0,0 0,0 7.1067,-13.02667 7.0933,-13.02666 5.16,-60.30666 -1.6267,-68.82666 -0.5867,-0.74667 -1.1867,-1.50667 -1.8,-2.28"
       style="fill:#2b478b;fill-opacity:1;fill-rule:nonzero;stroke:none;stroke-width:0.133333" />
    <path
       id="path63"
       d="M 3765.6132,2043.8267 H 266.10399 c -2.536,0 -4.61066,-2.0667 -4.61066,-4.6133 v -3.2934 c 0,-2.5333 2.07466,-4.6133 4.61066,-4.6133 H 3765.6132 c 2.5334,0 4.6134,2.08 4.6134,4.6133 v 3.2934 c 0,2.5466 -2.08,4.6133 -4.6134,4.6133"
       style="fill:#2e3552;fill-opacity:1;fill-rule:nonzero;stroke:none;stroke-width:0.133333" />
    <path
       id="path64"
       d="M 1767.9466,1908.3734 V 1978.52 L 1601.92,1908.3734 Z"
       style="fill:#4271bc;fill-opacity:1;fill-rule:nonzero;stroke:none;stroke-width:0.133333" />
    <path
       id="path65"
       d="m 2639.7733,1310.0961 v 721.2106 h 549.0933 v -721.2106 h -549.0933"
       style="fill:#4a75cb;fill-opacity:1;fill-rule:nonzero;stroke:none;stroke-width:0.133333" />
    <path
       id="path66"
       d="m 2470.4533,1310.1001 v 721.2066 h 549.1066 v -721.2066 h -549.1066"
       style="fill:#699dee;fill-opacity:1;fill-rule:nonzero;stroke:none;stroke-width:0.133333" />
    <path
       id="path67"
       d="m 3188.8666,1310.1001 v 107.8466 l -169.3067,-107.8466 z"
       style="fill:#4271bc;fill-opacity:1;fill-rule:nonzero;stroke:none;stroke-width:0.133333" />
  </g>
</svg>
